200 PA4-F-Debug-Output.txt
   -9.93   -12.35   -46.68        -9.94   -12.35   -46.66     0.013
    -2.6    -18.9   -37.25         -2.7   -18.83   -37.19     0.136
  -13.08   -26.55   -40.25       -13.09   -26.54   -40.24      0.01
  -15.95   -30.84   -34.26       -15.94   -30.87   -34.28     0.042
   33.87    16.66   -11.72        33.83    16.62   -11.71     0.057
   16.92    25.26   -20.74        16.95     25.2   -20.75     0.067
   22.15    20.86   -26.41        22.18    20.89   -26.45     0.054
    18.7    18.23    43.39        18.81    18.32    43.42     0.144
  -29.87     9.75   -29.68       -29.89     9.82    -29.7     0.073
   -6.95     6.51    45.56        -6.96     6.51    45.56     0.011
    -3.6     5.75    63.33         -3.6     5.75    63.34     0.009
  -29.17   -13.38    -6.25       -29.17   -13.41    -6.18     0.078
   -3.15   -19.64    -11.4        -3.14   -19.65   -11.39     0.014
  -10.96    -5.29     9.74       -10.97     -5.3     9.75     0.013
  -37.95   -15.35   -11.84       -37.86   -15.33    -11.9       0.1
    1.65   -13.44   -26.84         1.66   -13.44   -26.84      0.01
    1.38    10.74    -9.02         1.39     10.7      -9.     0.051
   11.47    26.97     3.66        11.48    26.93     3.65     0.038
  -10.59   -29.93   -27.77       -10.54   -30.02   -27.79     0.108
   -14.9   -11.84    -2.16        -14.9   -11.85    -2.15     0.015
   -0.27    17.06     58.1        -0.28    17.08     58.1     0.027
   -5.36    -5.67    27.67        -5.23    -5.54    27.66     0.187
    8.04     1.34    63.32         8.04     1.33    63.28     0.042
   -1.23   -18.91   -11.23        -1.22   -18.96   -11.21      0.06
  -41.37   -11.19   -16.31       -41.43    -11.2   -16.27     0.074
   35.11    -2.56   -19.14        35.11    -2.56   -19.13     0.002
  -37.97    -8.14   -10.79       -37.96    -8.14   -10.79     0.006
   13.19    14.82   -22.47        13.19    14.82   -22.47     0.005
  -39.94   -19.69    -33.3       -39.85   -19.68   -33.27     0.092
    3.89   -17.68   -16.38         3.87   -17.64   -16.38     0.053
   36.63     5.84   -16.52        36.69     5.85   -16.53     0.055
   -4.01   -11.35     5.62        -4.03   -11.45     5.65     0.109
    2.71    14.66    -3.22         2.66    14.71    -3.24     0.069
   37.23    -0.04     9.02        37.26    -0.05     9.04     0.038
    0.35     0.68   -24.74         0.36     0.68   -24.75     0.007
    -4.7    -0.12   -32.77        -4.76    -0.16   -32.77     0.065
   -3.21    -4.72    48.92        -3.08    -4.55     48.9     0.218
   -31.3     7.05   -16.79        -31.3     7.06   -16.79     0.012
  -27.59    11.07    -24.8       -27.62    11.13    -24.8      0.07
  -23.46     1.53    -45.2       -23.46     1.57   -45.23     0.052
   -8.84    12.93    38.38        -8.82    12.93    38.37      0.02
  -16.54   -11.93   -48.66       -16.56   -11.93   -48.59     0.081
   36.51    11.31      8.4        36.51    11.31     8.39     0.004
   -7.51    -9.99     6.34        -7.51    -9.99     6.34     0.001
    9.95    24.26    19.06         9.95    24.36    19.08     0.105
   11.22    -9.53      13.        11.18    -9.42    12.96     0.122
   33.87    16.69    -0.21        33.95    16.77    -0.23     0.114
  -20.45   -30.45   -16.26       -20.45   -30.51   -16.21     0.076
  -27.37    10.84   -21.68       -27.33    10.72   -21.71      0.13
    -1.6    10.66    -5.96        -1.62     10.7    -5.98     0.044
  -31.72   -29.38   -32.64       -31.64   -29.25   -32.58     0.157
  -39.91   -11.29   -34.37       -39.89   -11.28   -34.38      0.02
    6.91      8.2   -14.74         6.92     8.16   -14.68     0.078
   -0.32   -16.17   -34.27        -0.31   -16.17   -34.28     0.011
   27.22      3.6    27.15         27.1     3.61    27.11     0.126
  -23.13    12.01   -30.28       -23.12    11.82   -30.25     0.192
   12.06    25.53     -6.5        12.06    25.53     -6.5     0.001
    2.32    -6.64   -26.14         2.34    -6.63   -26.17     0.036
   -22.7   -10.37   -49.57        -22.7   -10.39   -49.62     0.053
   12.73   -10.95     8.26        12.71   -10.87     8.23     0.088
  -40.27   -10.69   -37.06       -40.12   -10.68   -37.06     0.147
  -38.22   -17.42   -13.45       -38.23   -17.42   -13.44     0.016
   -4.63   -11.25     6.26        -4.61   -11.16     6.23     0.096
    29.6    11.39    18.34        29.55    11.37    18.31     0.069
   38.45     4.77     8.05        38.45     4.77     8.04     0.002
   22.41     25.4    -0.47        22.45    25.51    -0.46     0.124
   -34.4     4.84   -35.95       -34.42     4.87   -35.96     0.039
    0.97    14.64    62.84         0.98    14.63    62.82     0.027
     31.    16.25   -21.84        30.94    16.21    -21.8     0.076
   18.34    -4.44    37.38        18.36     -4.5    37.38     0.068
  -13.47    22.06    20.86       -13.46    22.06    20.86     0.003
   -8.75     0.75    24.08        -8.79     0.74    24.09     0.039
    1.47     1.02   -23.82         1.47     1.03   -23.82     0.005
  -24.05   -31.39   -18.62       -24.06   -31.34   -18.65     0.056
  -15.54     5.48    -41.8       -15.53     5.49   -41.81     0.017
   37.44    -1.25    -1.16        37.37    -1.18    -1.16     0.099
  -32.36   -26.05   -15.46       -32.42   -26.15   -15.36      0.15
  -29.59     6.07   -38.93       -29.59     6.09   -38.94     0.025
    6.77    21.32     -2.8         6.64     21.4    -2.84     0.151
   33.84    16.67    -4.87        33.77    16.61    -4.88     0.097
  -13.52    -7.61      3.5       -13.57    -7.66     3.55     0.079
   -41.4   -17.82   -20.67        -41.5   -17.86   -20.65     0.111
   -9.02   -22.05   -10.87        -9.01   -22.09   -10.83     0.053
    9.88   -16.06   -10.74         9.87    -16.1   -10.74     0.042
   16.17    22.86    25.22        16.18    22.91    25.23     0.054
  -43.01    -5.03   -20.34       -43.06      -5.   -20.33     0.055
   37.56     7.02     -12.        37.57     7.03   -12.01     0.005
   -5.18    -8.28   -42.47        -5.24     -8.3   -42.41     0.089
   14.61    17.71    62.48         14.6     17.7    62.46     0.025
   16.59    14.61   -30.25        16.58     14.6   -30.27     0.028
   35.69     0.19    11.14        35.73     0.19    11.18      0.05
    12.3   -10.38     9.86         12.3   -10.41     9.87      0.03
     3.7    -7.45    29.49         3.71    -7.52    29.49     0.067
   27.99    22.06   -13.15        28.08    22.19   -13.15     0.162
   21.46     8.57    58.98        21.42     8.57    58.97     0.031
  -13.01   -30.28   -33.11       -13.01   -30.29   -33.12     0.015
   -0.67    13.74    -0.32        -0.65    13.71     -0.3     0.035
  -23.97   -24.83     -9.9       -23.97   -24.92     -9.8     0.145
  -36.49    -9.04    -43.4       -36.61      -9.   -43.54     0.189
    25.4    14.86   -28.28        25.39    14.85   -28.24     0.047
-6.110e+003.000e-024.479e+01        -6.01     0.06    44.79       0.1
    5.95    -16.4    -9.89         5.93   -16.35     -9.9     0.053
   21.97    -4.95    22.67        21.98    -4.98    22.68      0.04
    6.89    -15.6     -4.3          6.9   -15.53    -4.32     0.071
   -8.14     6.23   -31.93        -8.21     6.17   -31.93     0.085
  -19.18     6.66   -14.74       -19.16     6.62   -14.78     0.066
  -16.55     6.33   -13.12       -16.53     6.27   -13.18     0.084
   19.49    -6.17    21.33        19.48    -6.13    21.33     0.043
   23.27    25.23    -3.21        23.26    25.21    -3.21     0.023
  -16.23    -13.4   -48.42       -16.23    -13.4   -48.41     0.007
   -3.24    -3.64    63.33        -3.16    -3.58    63.19     0.174
  -40.92      0.5   -29.03       -40.86     0.46   -29.03      0.07
   24.71    -5.01     -26.        24.71    -5.01   -26.02      0.02
   23.58    10.21     42.5        23.53     10.2    42.49     0.052
  -42.93   -13.93   -21.63       -42.96   -13.94   -21.62     0.031
   15.21   -11.07     6.36        15.22    -11.1     6.38     0.028
   29.63     7.51   -28.98        29.63     7.52   -28.98     0.003
    2.99    -10.2    17.08         2.96   -10.02    17.04     0.189
  -12.36    10.01    27.93       -12.27    10.12     27.9     0.138
  -36.48   -17.16   -10.74       -36.45   -17.14   -10.78     0.052
  -20.84    10.24   -19.08       -20.84    10.26   -19.06     0.039
   23.25    -0.21    35.93        23.34    -0.21    35.91      0.09
    0.19   -14.15   -32.08         0.13   -14.15   -32.07     0.052
  -39.02   -23.94   -25.85       -38.92   -23.85   -25.85     0.139
    -6.1     -0.8    39.42        -5.99    -0.78     39.4     0.114
   -6.46   -17.09   -42.29        -6.45   -17.09    -42.3     0.017
    17.9    -6.09    22.54        17.93    -6.27    22.56     0.193
   22.11     3.22    50.57        22.09     3.22    50.56     0.026
    1.88    -6.63    46.55         1.87    -6.79    46.55     0.164
   -0.48    -6.62    35.34        -0.54    -6.82    35.39     0.218
   -21.1   -15.05    -5.75        -21.1   -15.05    -5.74     0.014
  -19.03   -29.61   -15.16       -19.04   -29.57   -15.18     0.043
    -1.5   -15.36   -36.83        -1.49   -15.36   -36.84     0.018
   29.56     4.19    20.31         29.6     4.19    20.33     0.051
  -38.17   -24.67   -25.14       -38.15   -24.64   -25.14     0.032
   14.22    23.55   -17.94        14.21    23.56   -17.94     0.016
   -1.05    -5.69    62.58        -1.15    -5.87    62.64     0.208
   12.18     24.5    -9.65        12.27    24.34    -9.57       0.2
   11.48    20.91    55.09        11.47    20.73    55.07      0.18
  -31.75   -13.04   -46.58       -31.77   -13.05   -46.62     0.052
   37.23    -0.34       9.        37.18    -0.32     8.97     0.063
    4.75     19.4    53.38         4.73    19.44    53.38     0.045
   -8.16    15.84    39.75        -8.24    15.83    39.83      0.11
  -26.65   -27.77   -12.94       -26.64   -27.77   -12.95     0.004
   14.45     -5.7    41.54        14.49    -5.84    41.55     0.154
    -4.1    -3.59    40.79        -4.25    -3.71    40.78     0.192
  -12.08    10.85    16.89       -12.12    10.84    16.88     0.037
  -33.78   -22.12   -11.74       -33.75    -22.1   -11.77     0.047
   -10.9     6.99    22.35       -10.94     6.98    22.37     0.047
   32.47    18.35     0.55        32.49    18.37     0.55     0.028
   39.74     4.43     2.73        39.71     4.44     2.73     0.027
    3.07   -17.79   -11.63         3.05   -17.76   -11.64     0.037
   -11.5    23.46    21.53       -11.57    23.67    21.47     0.235
    17.1    21.25    -29.1         17.1    21.25    -29.1     0.007
   35.78    -2.15   -17.78        35.77    -2.15   -17.78     0.015
   12.05    25.49    -6.45        12.03    25.53    -6.46     0.048
    -4.5    23.15    33.07         -4.5    23.15    33.07     0.005
   20.76     15.9    -30.6        20.75     15.9   -30.58     0.025
  -34.14   -27.86   -32.42       -34.09   -27.77   -32.39     0.104
   28.78    14.91   -25.72        28.73    14.87   -25.67     0.086
   10.11    19.44      61.        10.11    19.43      61.     0.009
   -6.38    -9.68     9.29        -6.39    -9.71      9.3     0.036
   -7.09     5.32    57.02        -7.09     5.32    57.02     0.005
  -16.29    16.47    20.74       -16.25    16.48    20.76     0.052
   -4.94    -1.17   -37.88        -4.95    -1.18   -37.87     0.019
   -4.38     -2.9    52.26        -4.31    -2.84    52.24     0.092
   38.42     2.01   -12.26        38.46     2.01   -12.27     0.046
  -13.32     4.76    -0.68       -13.32     4.75    -0.68     0.003
   25.71    11.58    29.24        25.72    11.58    29.25     0.011
   24.53   -14.42   -11.06        24.55   -14.44   -11.05      0.03
   39.79     7.35    -4.87         39.7     7.31    -4.85       0.1
   28.65    -4.56   -26.01        28.64    -4.56   -26.05     0.038
    0.83    17.83      56.         0.77    17.99    56.02     0.171
  -22.77    -1.27   -47.19       -22.77    -1.27   -47.19     0.007
   -1.92     3.21   -24.54        -1.91     3.22   -24.55     0.017
  -38.88   -21.45   -17.47       -38.75   -21.36   -17.55     0.174
   23.01     4.45    46.12        22.83     4.49    46.09     0.186
   38.01    -0.42     2.19        38.11    -0.46     2.19     0.104
   -8.47     8.34   -18.09        -8.47     8.38   -18.09     0.039
   30.67     7.66   -28.09        30.64     7.66   -28.07     0.034
   38.82      1.4     6.93        38.76     1.41     6.91      0.06
  -43.04    -9.13   -20.16       -43.11    -9.14   -20.14     0.075
    3.29    -7.04    35.44         3.29    -7.15    35.44     0.106
   14.71    -4.98    58.32        14.65    -4.87    58.31     0.128
   19.81     4.86   -26.64        19.84     4.87   -26.63     0.029
   -5.24    12.06    56.48        -5.17    12.03    56.49     0.072
   17.01    13.06   -29.94        17.05     13.1   -29.86     0.092
  -18.71     5.55   -13.44       -18.73     5.58   -13.41     0.044
  -29.27   -22.09    -8.52       -29.26   -22.07    -8.54      0.03
   14.55    -6.59    25.31        14.54    -6.51    25.31     0.081
   35.25    11.68   -15.73        35.24    11.67   -15.72      0.02
   -9.35     0.46    21.33        -9.38     0.45    21.34     0.032
  -18.54   -31.44   -34.04       -18.52   -31.57   -34.09     0.138
  -38.26     4.26   -26.13       -38.27     4.27   -26.12     0.009
     9.3    -3.02   -21.99         9.32    -3.01   -22.03     0.044
   20.13    -5.41    24.48        20.19     -5.5     24.5     0.113
    2.78    23.88    13.38         2.82    23.78     13.4     0.111
  -35.83    -8.39    -8.75       -35.83    -8.39    -8.75     0.001
   -5.84    -0.39    57.29        -5.82    -0.38    57.29     0.026
   28.78    12.47   -27.58         28.8    12.49   -27.61     0.045
