200 PA4-J-Unknown-Output.txt
  -32.47   -11.92   -46.45       -32.49   -11.92   -46.54     0.095
   33.67     8.76   -23.02        33.64     8.75   -23.01     0.025
    0.79    -6.74     43.6         0.79    -6.76     43.6     0.016
    2.43   -10.17    16.74         2.43   -10.18    16.74     0.005
    1.98   -10.93    12.97         1.98   -10.92    12.97     0.007
   -6.39    -7.35     17.6        -6.52    -7.48    17.64     0.191
  -18.97   -13.85   -48.79       -18.97   -13.87   -48.86     0.074
   -4.84   -11.85      3.9        -4.84   -11.84     3.89      0.01
    33.3    10.29   -22.86        33.32    10.29   -22.87     0.022
   14.86    -5.45    45.28        14.87    -5.46    45.29      0.02
   18.88    17.86    44.07        18.97    17.93    44.09     0.117
    -9.5     3.16    23.04        -9.58     3.14    23.05     0.078
   37.93     11.2    -4.73        37.98    11.23    -4.74     0.062
  -13.59    21.98    21.01       -13.59    21.98    21.01     0.001
  -33.23      6.4   -17.72       -33.17     6.31   -17.76     0.113
   -5.34   -22.52   -14.57        -5.29   -22.58   -14.53     0.083
  -10.76   -28.99   -20.29       -10.74   -29.04   -20.28     0.062
  -21.14   -31.48   -34.75       -21.14   -31.52   -34.77     0.043
   13.74    -6.89    23.76        13.72    -6.76    23.75     0.136
   23.28    10.28    45.12        23.16    10.26     45.1     0.123
  -32.63   -26.42     -16.       -32.68   -26.51   -15.92     0.134
   13.12    10.96   -13.73        13.05    10.98   -13.76     0.087
   -8.93    -4.15    18.37        -8.84    -4.11    18.35     0.094
   19.87    13.77    59.82        19.87    13.77    59.83     0.001
  -36.84   -10.74    -9.57       -36.86   -10.75    -9.56     0.026
   32.92     8.64   -24.22        33.09     8.65   -24.29     0.182
  -42.15    -16.9   -29.14       -42.09   -16.88    -29.1     0.077
   -7.12     5.44    58.21        -7.09     5.44    58.21     0.036
   -7.58    -9.18     8.36        -7.65    -9.34      8.4     0.178
    -0.8    -6.34    56.23        -0.71    -6.15    56.23     0.215
  -27.65    11.07   -23.87       -27.64    11.06   -23.87     0.009
  -16.86   -26.93   -41.18       -16.86   -26.94   -41.19     0.017
   18.85    17.69    45.53        18.89    17.72    45.54      0.06
   30.61   -10.18    -15.3        30.66   -10.22   -15.29      0.06
    -40.    -6.77   -37.94       -40.05    -6.77   -37.96     0.047
   -6.47     1.92    44.02        -6.53     1.91    44.02      0.06
  -15.74   -12.77   -48.48       -15.74   -12.77   -48.45     0.028
   -2.81    17.02     8.46         -2.8    17.01     8.47      0.02
   33.96    -2.42   -22.28        33.95    -2.42   -22.28     0.006
   -8.83   -20.32    -9.17        -8.86   -20.27    -9.23     0.083
  -29.38     6.63   -38.06       -29.41     6.71    -38.1     0.094
    7.95    -0.21    -21.6         7.95    -0.21    -21.6     0.002
    35.6    -0.42    11.24        35.59    -0.42    11.23     0.018
    0.22    12.63    -3.53         0.21    12.65    -3.54     0.025
     0.9     17.6    57.53         0.82    17.81    57.55     0.226
   35.99     -1.5     10.3        35.94    -1.48    10.25     0.074
  -12.26    10.09    18.06       -12.13    10.11    18.06     0.124
  -11.17   -29.91   -30.05       -11.14   -29.97   -30.05     0.068
    4.85    19.37    54.21         4.84    19.41    54.22     0.037
  -33.69   -24.15   -13.96       -33.69   -24.15   -13.96     0.001
   25.73    23.94    -0.73        25.78    24.02    -0.73     0.091
   18.35   -14.23    -1.63        18.32   -14.17    -1.67     0.078
  -19.51    -0.29   -46.31       -19.51    -0.28   -46.33      0.02
   -3.99     -4.7    36.52        -4.12    -4.84    36.53     0.196
    29.7    16.46    13.72        29.71    16.46    13.72     0.002
   27.62     1.04    24.22        27.51     1.09    24.18     0.122
   10.49   -11.76   -19.93         10.5   -11.77   -19.94     0.014
   27.72   -10.04     0.58        27.72   -10.04     0.58     0.003
   -9.06   -27.75   -18.84        -9.05   -27.77   -18.83     0.018
    -3.4   -20.48   -12.71        -3.41   -20.47   -12.71     0.013
   19.17    -4.41    34.46        19.14    -4.35    34.45      0.06
   14.48    -3.01    62.77        14.52    -3.05    62.85     0.105
   -4.32    13.73    56.29        -4.33    13.74    56.29     0.013
    2.17      23.    29.61         2.17    22.99    29.61     0.011
   20.65   -10.92     1.95        20.65   -10.93     1.95     0.009
   -0.06    -2.08   -26.61        -0.07    -2.09   -26.59     0.032
   34.73    -4.57     1.57        34.68    -4.51     1.58      0.08
   -5.66     9.91    -1.84        -5.67     9.92    -1.85     0.015
    -5.6   -24.57   -17.65        -5.64   -24.52   -17.68     0.069
   -3.43   -22.78   -17.27        -3.45   -22.76   -17.28     0.029
  -25.75   -18.19   -46.94       -25.76   -18.21   -47.03     0.092
   20.99    25.22   -16.32          21.    25.28   -16.32     0.059
  -17.43   -32.09   -31.62       -17.46   -31.96   -31.59     0.128
  -26.43     9.79   -19.05       -26.46     9.89   -18.99     0.127
   33.61    11.91    -21.2        33.61     11.9    -21.2     0.006
    1.27    -8.69   -27.54         1.32    -8.67   -27.57     0.061
    8.73     20.9    -7.93         8.78    20.88    -7.91     0.051
   -7.49    -3.92     24.2        -7.63    -3.99    24.23     0.164
   -4.59    -9.68    12.66        -4.61    -9.72    12.67      0.05
  -40.06    -9.77   -37.38       -40.15    -9.78    -37.4     0.088
   -9.47     6.26    26.44        -9.62      6.2    26.48     0.168
    5.09    23.47     3.87         5.21    23.28     3.94      0.23
    3.41   -17.91   -16.74         3.37   -17.84   -16.73     0.079
   -5.79    11.18    51.54        -5.82    11.19    51.54     0.023
   37.43    -1.08    -3.45         37.5    -1.15    -3.44     0.099
   -32.4     5.56   -37.17       -32.41     5.57   -37.17     0.022
  -37.37   -10.12   -10.03       -37.42   -10.12    -9.99     0.067
   14.53    24.34   -12.75        14.49     24.4   -12.77     0.076
   31.67    19.25     4.63        31.69    19.27     4.63     0.031
    0.91     3.19   -22.65         0.85     3.14    -22.6     0.092
   21.61    18.16    30.83        21.73    18.29    30.89     0.185
  -10.47    -2.87    13.67       -10.55     -2.9    13.71       0.1
   34.89    14.99      6.9        34.94    15.04     6.92     0.071
   23.13     -2.4    30.83        23.11    -2.37    30.82     0.049
  -42.73   -14.49   -21.38        -42.8   -14.51   -21.36     0.075
    2.17    -7.87   -26.42          2.2    -7.86   -26.46      0.05
  -26.19   -25.81   -10.83       -26.19   -25.91   -10.72      0.15
   29.82    20.78     6.52        29.77    20.73     6.52     0.074
   23.31     8.57    45.67        23.27     8.57    45.67     0.043
  -16.06   -31.75   -31.34       -16.08   -31.69   -31.33     0.065
  -18.15     1.09   -45.56       -18.15      1.1   -45.59     0.029
   14.97    10.92     63.2        14.97    10.92    63.17     0.031
  -29.29    -8.77    -7.28       -29.29    -8.78     -7.3     0.023
    7.64     -6.7     42.2         7.65    -6.73     42.2     0.027
  -27.38    -5.49   -47.98       -27.39    -5.49   -48.01     0.027
   -43.9   -11.02   -24.22       -43.93   -11.03   -24.21      0.04
   15.67    26.75     5.43        15.67    26.78     5.44     0.028
   -18.6   -31.66   -19.02        -18.6   -31.66   -19.02     0.002
   20.95    18.44    33.71        20.99    18.47    33.72     0.048
    2.17    -0.74   -23.91         2.15    -0.76   -23.88     0.038
    10.4     7.19   -15.16         10.4     7.19   -15.17     0.014
    2.33    18.84    51.94         2.34    18.83    51.94     0.017
   10.29     25.8    -0.41        10.31    25.76     -0.4     0.044
   38.08     0.94   -13.05        38.14     0.94   -13.08      0.07
    7.13    20.56    46.45         7.15    20.46    46.44     0.108
   16.63    -4.97    42.09        16.67    -5.04    42.09     0.076
    8.71    25.37    12.64         8.71    25.39    12.64     0.018
    5.31    17.24    63.22         5.31    17.24    63.19     0.028
   30.47    12.87    15.23        30.54    12.91    15.27     0.086
   -2.65    -4.89    54.34        -2.68    -4.92    54.34     0.045
   -40.5     1.25   -23.76        -40.4      1.2   -23.78     0.112
  -39.62   -12.24    -13.4       -39.55   -12.23   -13.45     0.083
  -30.18    -9.01    -6.71        -30.1    -8.88    -6.62     0.168
  -26.82     -31.   -19.22       -26.84   -31.05   -19.21     0.051
  -39.74   -22.27   -28.58       -39.78   -22.29   -28.58     0.049
   24.36      5.1    38.85        24.29     5.11    38.84     0.064
   11.97    -6.49    27.66        11.97    -6.55    27.67     0.055
   17.81    -7.21   -22.72        17.78    -7.22   -22.75     0.045
    16.2    -7.59     16.3        16.18    -7.46    16.27     0.139
   -37.8   -23.14   -34.16       -37.73   -23.09   -34.14     0.082
  -10.78    18.09    37.18       -10.77    18.09    37.17     0.006
   22.23    -9.99     2.49        22.24   -10.03      2.5     0.046
   33.16     0.83   -23.83         33.2     0.83   -23.86     0.051
    -7.9     4.41    30.59        -7.93      4.4    30.59     0.027
-8.45e+00-2.00e-02-4.15e+01        -8.43      -0.   -41.54     0.045
   16.21    12.36    63.18        16.21    12.36     63.2     0.019
  -43.08    -5.98   -29.94       -43.11    -5.98   -29.95      0.03
   15.66    22.56    28.83        15.65    22.48    28.82     0.074
   23.19   -14.92    -7.28        23.12   -14.83    -7.31     0.115
   34.31    -6.03   -14.98        34.34    -6.05   -14.98     0.042
   -5.25    12.04    55.29        -5.14    11.99    55.27     0.117
  -37.08   -19.96   -13.66       -37.11   -19.97   -13.65     0.032
   -8.35    -4.46    20.23        -8.28    -4.42    20.21     0.087
   17.03    22.04   -28.42        17.05    22.09   -28.46     0.062
   32.62    -1.78    13.74        32.59    -1.75    13.71     0.044
  -33.48      3.4   -38.88       -33.43     3.33   -38.82     0.109
  -30.01   -30.98   -27.96       -29.95   -30.84   -27.95     0.152
   -9.08   -23.38   -40.51        -9.01   -23.45   -40.58     0.123
    -2.3    19.64    10.72        -2.38    19.72    10.65     0.137
   25.29   -11.27    -21.5        25.29   -11.27    -21.5     0.005
   17.37    27.06    -3.67        17.35    26.91    -3.64     0.151
   -4.43   -12.62     1.86        -4.43   -12.68     1.88     0.068
   25.44     22.7     9.86         25.4    22.63     9.84     0.085
  -11.12   -20.42    -9.12       -11.12   -20.43    -9.11     0.015
   -6.85     5.03    53.96        -6.96     5.01    53.95     0.109
   19.83   -10.35    -21.6        19.84   -10.34   -21.58     0.022
   34.02    -0.89   -22.81        33.97    -0.89   -22.77     0.065
   36.04     6.09   -18.65          36.     6.08   -18.64     0.043
   -1.36    -5.82    54.74        -1.34     -5.8    54.74     0.029
   -9.73    -9.58     4.78        -9.75     -9.6     4.79     0.034
  -35.05   -15.22     -8.5       -35.01   -15.22    -8.55     0.063
  -43.96    -7.28   -25.18       -44.04    -7.26   -25.19     0.076
   15.37    -14.5   -16.09        15.37   -14.53   -16.12     0.049
   38.38      0.2    -0.94        38.45     0.15    -0.95     0.087
   24.38    18.26    22.31        24.41    18.29    22.32     0.038
  -36.79   -16.62    -10.9       -36.79   -16.62    -10.9     0.002
    27.3    15.81    18.42         27.3    15.81    18.42     0.005
   -1.75    -9.38    20.96        -1.75    -9.39    20.96     0.012
  -18.28    -1.32    -2.97        -18.3     -1.3    -2.96     0.025
    5.09    -9.45     17.8         5.09    -9.45     17.8     0.004
    21.7    24.52     8.72        21.64    24.36     8.67     0.176
   15.84    23.91    18.59        15.83    23.83    18.57     0.081
   11.27    20.34    59.69        11.28    20.42     59.7     0.081
   18.25     1.26    62.64        18.37     1.14     62.8     0.226
   37.45    10.29    -9.87        37.49     10.3    -9.88     0.036
  -17.99   -27.37   -12.35         -18.   -27.33   -12.39     0.065
    1.23   -11.27   -28.05         1.27   -11.27   -28.07     0.046
  -10.27    -5.51    10.57       -10.33    -5.55    10.59     0.068
   -7.73    -3.94    24.09        -7.69    -3.93    24.08     0.041
   13.63     26.3     9.02        13.64    26.42     9.04      0.13
   -6.83    -8.28   -44.07        -6.82    -8.28   -44.08     0.004
  -28.76   -28.24   -14.83       -28.77   -28.27   -14.81     0.034
   -4.91     8.63   -13.15        -4.93     8.71   -13.16     0.081
   20.71    -1.82    41.86        20.82    -1.93    41.88     0.155
   21.54    25.57     2.84        21.54    25.57     2.84     0.001
   20.02    23.06   -25.68        20.04    23.08    -25.7     0.031
  -12.78    10.46     20.4       -12.71    10.51    20.43     0.087
  -14.15    21.46    29.32       -14.25    21.54    29.36     0.131
   26.05    -1.99     23.3        26.11    -2.05    23.33     0.089
   16.74    26.46    -5.91        16.76     26.6    -5.93     0.148
   32.44      0.8   -24.87        32.45      0.8   -24.88     0.018
    -1.2   -16.13   -36.25        -1.22   -16.13   -36.24     0.018
  -28.87      9.8   -20.32       -28.87     9.77   -20.33     0.026
   31.35    -5.91   -23.44        31.36    -5.92   -23.45      0.02
   -2.29   -18.48   -36.49        -2.18   -18.51   -36.54     0.122
   -4.32    -0.83   -32.99        -4.35    -0.84   -32.99     0.036
   23.88     6.85    41.49        23.95     6.85     41.5     0.073
    3.06    -5.28     63.5         3.06    -5.28    63.47     0.037
   21.56    12.51    50.14        21.59    12.52    50.15     0.033
  -21.03   -14.11    -47.8       -21.03   -14.12   -47.79      0.01
