200 PA4-E-Debug-Output.txt
   36.77    13.12    -3.67        36.77    13.12    -3.67     0.001
  -25.36   -27.48   -39.87       -25.37   -27.54   -39.92     0.083
  -13.12   -23.21   -10.13       -13.05    -23.3   -10.06      0.13
  -15.39    -27.1    -40.5       -15.39    -27.1    -40.5     0.002
   15.77    20.22    48.37        15.74    20.19    48.36     0.045
   -7.09     -3.3    28.24        -7.15    -3.34    28.26     0.078
   13.17    17.08   -15.52        13.07    17.02   -15.51     0.111
   -2.12    12.08    -1.83        -2.13    12.09    -1.83     0.014
   -4.04    -6.73    30.01        -3.94    -6.59    29.98     0.174
  -42.02    -6.55   -17.63       -42.06    -6.55    -17.6     0.053
   13.29    -7.78    15.54        13.33    -8.04    15.61     0.268
  -21.67    12.11    -30.1       -21.66    11.99   -30.08     0.124
  -19.34   -31.72   -34.14       -19.35   -31.69   -34.13      0.03
   26.73     8.15   -30.29        26.73     8.15   -30.31     0.023
  -19.03   -20.49   -46.72       -19.02   -20.51   -46.77     0.056
   32.49    -7.68   -11.99        32.56    -7.75   -11.97       0.1
   -9.57   -10.08     3.96        -9.59    -10.1     3.97     0.027
   -37.9     4.63   -26.59        -37.9     4.63   -26.59     0.001
   -5.89   -19.75   -10.02        -5.92    -19.7   -10.07     0.079
   28.71    -1.51    18.78        28.71    -1.52    18.78     0.006
   -2.33    -7.58   -37.44        -2.29    -7.57   -37.45     0.038
   33.34    17.41    -9.89        33.41    17.47    -9.88     0.097
   -4.37    -0.84   -32.59        -4.35    -0.84   -32.59     0.014
   28.84     3.54    21.93        28.84     3.54    21.94     0.003
   17.87    26.25     7.32        17.84     26.1     7.29     0.158
   11.48    22.19    34.54        11.48    22.13    34.53     0.064
   12.94     -6.1    35.46        12.94     -6.1    35.46     0.006
  -19.75    12.15   -25.62       -19.75    12.15   -25.62     0.005
   23.39    -1.18    33.71        23.37    -1.16     33.7     0.038
    -6.3    24.73    22.99         -6.3    24.75    22.99     0.013
  -25.32   -15.62   -47.95       -25.31   -15.62   -47.92     0.032
  -37.16   -21.82    -14.9       -36.99   -21.73   -14.99     0.206
  -20.47   -30.09   -15.36       -20.47   -29.99   -15.42     0.126
  -12.83     -4.5     7.04       -12.91    -4.54     7.08     0.097
   21.34   -14.54    -4.14         21.3    -14.5    -4.19     0.074
  -25.46     4.74   -14.05       -25.46     4.73   -14.05     0.003
   15.61    27.38    -0.75        15.64    27.13    -0.77     0.252
   17.66   -17.35    -7.36        17.66   -17.35    -7.35     0.005
  -18.31    -32.2    -30.8       -18.29   -32.28   -30.81     0.089
  -10.48    16.51    37.67       -10.45    16.52    37.63      0.05
   -26.2   -18.53   -46.95        -26.2   -18.52   -46.91     0.033
  -22.27     7.41   -16.36       -22.26     7.45   -16.32      0.05
    19.5    -0.42    58.19        19.41    -0.38    58.18       0.1
  -41.26    -3.32    -17.5       -41.24    -3.32   -17.52     0.022
   35.46     1.45   -19.89        35.37     1.45   -19.86     0.096
  -15.74     8.73   -37.91       -15.73     8.75   -37.93     0.027
  -23.19   -31.29   -18.48       -23.17   -31.21   -18.51     0.089
    0.92    -6.59   -27.47         0.98    -6.58   -27.52     0.085
  -38.24     3.26   -31.37        -38.2     3.22   -31.35      0.06
    34.2    12.46   -19.15        34.14    12.44   -19.14     0.064
  -24.18    11.98   -27.49        -24.2    12.06    -27.5     0.088
   14.34    20.41   -29.89        14.33    20.43   -29.92     0.038
   11.39    10.52   -12.68         11.4    10.49   -12.63     0.062
   37.17    -1.48    -1.24        37.12    -1.43    -1.23     0.071
  -21.04   -10.38   -49.09       -21.03   -10.39   -49.06      0.03
   -1.68    -14.1    -37.5        -1.77    -14.1   -37.47     0.095
   20.37    14.33    52.09         20.4    14.35    52.09     0.035
  -11.91     3.33    15.07       -11.85     3.33    15.06     0.066
   23.06     1.85    42.51        22.95     1.89    42.49      0.12
  -18.73    -5.52      -2.       -18.72    -5.51    -2.01     0.022
  -29.13   -16.25   -47.15       -29.13   -16.25   -47.12     0.032
   14.24    -2.79   -22.14        14.24    -2.79   -22.17     0.027
   33.72    -5.61     4.72        33.77    -5.67     4.73      0.08
    7.35   -15.77    -4.25         7.38   -15.63    -4.31     0.157
   -5.14    -2.44    49.42        -4.96    -2.34    49.43     0.201
   20.73    10.58     61.8        20.61    10.54    61.76     0.125
   17.16    21.53    35.81        17.17    21.57    35.81     0.044
   24.17    11.09    35.79        24.35    11.15    35.83     0.198
  -43.53   -13.29   -23.57        -43.5   -13.28   -23.57      0.03
   19.65     2.24     62.3         19.7     2.22    62.33     0.062
   14.13    18.21   -30.78        14.14    18.22   -30.75     0.037
   -0.94    -6.33    43.14        -0.89    -6.15    43.11     0.197
   17.64    19.73   -29.79        17.65    19.75   -29.83     0.045
  -36.97    -8.57     -9.2       -36.95    -8.58    -9.21     0.021
    14.3     -5.8    39.24        14.31    -5.82    39.24     0.018
   -5.96    16.91    12.02        -6.03    16.93    11.96     0.091
  -29.66   -29.89   -33.44       -29.68   -29.93   -33.45     0.043
   15.08   -15.41    -14.4        15.06   -15.49   -14.44     0.092
  -11.59   -14.13    -2.75       -11.59   -14.13    -2.76     0.007
   23.34    18.51    25.26        23.26    18.45    25.23     0.099
   24.15    21.28   -24.38        24.14    21.26   -24.36     0.033
   10.82    17.28     -11.        10.88    17.31   -10.96     0.076
    4.32    -7.43    62.45         4.32    -7.43    62.45     0.002
  -13.57    -3.43     6.68       -13.63    -3.47     6.72     0.081
    2.71     16.8     -0.5         2.75    16.77    -0.48     0.055
   23.95    10.73   -30.85        23.96    10.73   -30.89     0.034
   -6.74    -25.3    -17.5        -6.77   -25.27   -17.52     0.054
    2.95    23.06     28.3         2.97    23.19    28.32      0.13
    5.49   -13.42   -22.22         5.44   -13.39   -22.16     0.075
   38.79     8.47     -6.2        38.93     8.53    -6.23     0.145
   17.08    -3.29    56.66        17.07    -3.28    56.66     0.023
     9.5   -11.91    -20.4         9.47   -11.83   -20.32     0.118
  -10.73    22.78    19.33       -10.73    22.77    19.34     0.011
   -6.89   -21.29   -40.48        -6.92   -21.26   -40.46     0.051
  -15.81     2.63    -1.89        -15.8     2.61    -1.89     0.015
   17.54    25.33   -14.45        17.53    25.47   -14.45     0.139
   -30.3   -27.67   -15.52       -30.29   -27.66   -15.52     0.015
  -15.96    11.59   -27.14       -15.91    11.72   -27.13     0.142
   -36.9   -20.24   -39.33       -36.84    -20.2   -39.29     0.082
    3.68    -2.17   -23.75         3.68    -2.16   -23.76     0.015
   22.77   -14.97    -7.08        22.79     -15.    -7.06     0.043
   -42.2   -13.79   -28.06       -42.31   -13.76   -28.14     0.132
   -7.53     7.92    37.58         -7.6     7.91    37.58      0.07
   24.44     0.48   -28.53        24.44     0.48   -28.53     0.001
    4.89     9.85   -12.63         4.89     9.85   -12.63     0.002
   30.03    20.97     4.62        29.95    20.88      4.6     0.122
   -15.8    18.87    28.45       -15.98    18.92     28.5     0.197
   11.58     7.98      63.        11.58     7.98    62.99     0.009
   18.55    -3.79    39.47        18.62    -3.89    39.49     0.121
    4.53    -0.04   -22.57         4.51    -0.07   -22.51     0.072
    6.28   -14.18   -20.48         6.35   -14.25   -20.53     0.104
    7.91   -12.02   -21.54         7.92   -12.04   -21.56     0.022
    6.02   -15.88   -17.97         5.95   -15.81   -17.94     0.107
   -6.32     1.52    53.57         -6.5     1.45    53.58     0.192
  -40.55   -19.82   -30.92       -40.57   -19.82   -30.92     0.021
   -2.03   -22.93   -29.04        -2.07    -22.9   -29.03     0.052
  -12.06   -29.84   -32.44         -12.   -29.94   -32.47      0.12
  -37.79   -13.16   -42.24       -37.75   -13.15   -42.21      0.05
   -6.33   -17.62    -6.93         -6.3   -17.67     -6.9     0.057
    4.11     9.87   -12.81         4.11     9.76   -12.74     0.126
   21.06    24.65   -22.65         21.1    24.73   -22.66     0.087
   29.74     0.94   -28.34        29.73     0.95   -28.33     0.022
  -23.78   -30.76   -17.65       -23.76   -30.85   -17.61     0.097
  -16.45     10.1   -36.18       -16.47    10.04   -36.17     0.066
   23.12     13.3    39.67        22.97    13.23    39.65     0.168
   -6.35      2.4     60.5        -6.31      2.4    60.49      0.04
   35.95    14.15    -6.48        35.89     14.1    -6.49     0.068
  -16.11   -12.39    -3.07       -16.12    -12.4    -3.05     0.024
   25.63    23.78   -16.52        25.58    23.69   -16.52     0.105
   32.75    -6.55     3.73        32.72    -6.51     3.73     0.058
  -42.63    -16.8   -25.16       -42.68   -16.83   -25.15      0.06
   11.65    20.71   -13.48        11.53    20.76   -13.52     0.132
   38.39     6.82    -9.96        38.49     6.86     -10.     0.121
  -27.83   -28.49   -14.48        -27.8   -28.38   -14.53     0.123
   -21.3   -13.43   -47.54       -21.25   -13.39   -47.64     0.118
  -25.59    10.07   -33.99        -25.6    10.11     -34.     0.044
   25.39    23.77     3.84         25.4    23.79     3.84     0.024
   -42.6    -2.29   -27.71       -42.55    -2.31   -27.71     0.046
   -5.22    11.59    55.37         -5.3    11.63    55.38     0.088
   -5.47   -16.86    -6.19        -5.46   -16.94    -6.15     0.089
   33.66     0.65   -23.35        33.59     0.65    -23.3     0.089
  -15.19    -1.54   -46.84       -15.19    -1.55   -46.82      0.02
   11.82     0.16    63.15        11.82     0.16    63.11     0.038
   -1.11   -20.15   -32.86        -1.13   -20.14   -32.86     0.024
  -34.76     3.75   -15.58       -34.78     3.76   -15.56     0.023
   10.55     -6.5    44.37        10.55    -6.47    44.37     0.033
   -6.14    -2.44    35.12        -6.19    -2.45    35.13     0.052
  -21.74    -9.32   -49.35       -21.74    -9.31   -49.37     0.021
  -31.67     6.96    -35.3       -31.64      6.9   -35.28      0.07
   -2.93    16.43     8.03        -2.92    16.43     8.03     0.002
   -5.77    -0.22    61.68        -5.63    -0.22    61.69     0.143
   -3.09    22.11    15.12        -3.11    22.15    15.09     0.047
   29.77    -1.69    16.99        29.85    -1.75    17.05     0.114
   -6.64     1.45    53.86        -6.51      1.5    53.86     0.137
   20.75   -14.28   -17.56        20.76   -14.24   -17.52      0.06
   -7.68     3.76   -36.15        -7.63      3.8   -36.18     0.064
   32.77    15.56    10.12         32.8    15.57    10.13     0.033
    1.16    10.01   -10.53         1.15    10.04   -10.55     0.034
   19.26    -4.15   -23.53        19.26    -4.15   -23.53     0.001
    22.8    22.21    15.44        22.78    22.17    15.42     0.042
  -26.58    -3.64   -47.36       -26.59    -3.66   -47.33      0.04
   28.49     2.84   -29.84        28.48     2.84   -29.83     0.012
     -4.    14.36    56.41        -3.93    14.31     56.4     0.089
  -31.14    -8.75    -6.42       -31.11    -8.75    -6.45     0.038
   21.57    11.31     52.6        21.63    11.34    52.61     0.067
    5.47    20.51    42.32         5.46    20.63    42.34     0.122
   -4.83    -9.91   -42.19        -4.83    -9.91   -42.19       0.0
    6.46    21.46    36.94         6.46    21.44    36.94      0.02
   12.56   -17.16    -7.83        12.59   -17.09    -7.82     0.067
   -8.54   -10.45   -45.79        -8.54   -10.45   -45.79     0.002
    6.55    -5.79   -23.21         6.55    -5.79   -23.23     0.025
3.169e+013.000e-021.546e+01    3.173e+011.000e-021.550e+01     0.057
  -19.16   -14.33   -48.86       -19.17    -14.3   -48.75     0.117
   10.61    22.14    34.73        10.62    22.02    34.71     0.117
   25.16    17.24    22.71        25.02    17.16    22.67     0.162
    6.38      6.1   -16.69         6.39     6.12    -16.7     0.024
  -22.03   -10.03    -4.21       -22.02   -10.03    -4.22     0.016
  -30.26     6.36   -38.14       -30.23     6.32   -38.11     0.047
  -24.75   -21.44   -45.76       -24.75    -21.4   -45.71     0.069
   -12.3      14.    34.75       -12.29    14.01    34.73     0.024
  -25.17   -30.96   -34.72       -25.16   -30.92    -34.7     0.046
   -28.9    -9.41    -6.55       -28.97    -9.53    -6.63     0.161
   -6.23   -18.39    -8.06        -6.27   -18.32     -8.1     0.091
  -29.17    10.23    -28.8       -29.17    10.22   -28.79     0.014
   19.99     2.39    62.08        19.97      2.4    62.07     0.027
   21.08    10.64    58.74        21.22    10.66    58.76     0.142
    2.48    21.36    36.31         2.48    21.36    36.31     0.005
  -15.93     1.15   -45.43       -15.93     1.15   -45.43     0.003
  -14.94   -10.51     -0.6       -14.95   -10.52    -0.59     0.018
    3.19    18.87    54.76         3.19    18.85    54.76      0.02
   -6.64   -10.03     8.14        -6.59    -9.93     8.11     0.113
   -7.17     5.92    37.69        -7.18     5.92    37.69     0.015
  -13.71   -28.77   -37.18       -13.71   -28.76   -37.17     0.016
  -14.72     5.61   -10.61       -14.71     5.58   -10.62     0.031
  -34.72     5.17   -34.49       -34.75      5.2    -34.5     0.038
-3.000e-02-6.260e+004.616e+01        -0.05    -6.29    46.16     0.034
   -4.12    -3.33   -38.55        -4.17    -3.36   -38.52     0.066
  -15.01     13.1    21.19       -15.07    13.05    21.16     0.073
   -6.58    16.31    12.24        -6.56     16.3    12.26     0.027
    0.43    -5.72   -28.12         0.37    -5.76   -28.08     0.079
