75 PA4-A-Debug-Output.txt
   23.41    -1.71    32.07        23.42    -1.72    32.07     0.009
    -34.    -10.2     -46.         -34.    -10.2     -46.     0.003
   -6.89     7.33      50.        -6.89     7.33      50.       0.0
   12.46     22.1    35.65        12.46     22.1    35.65     0.005
  -39.75   -12.68   -35.53       -39.75   -12.68   -35.52     0.006
  -38.81   -21.95   -18.45       -38.81   -21.95   -18.45     0.002
   32.73    -1.27    -24.4        32.73    -1.27    -24.4     0.003
  -18.67   -19.86   -46.96       -18.67   -19.86   -46.96     0.001
      3.    19.56     47.3         3.01    19.55     47.3     0.005
   -16.6   -30.71   -18.82        -16.6    -30.7   -18.83     0.005
  -32.77    -3.15    -9.91       -32.77    -3.15    -9.91     0.002
   35.27    11.54     9.79        35.27    11.54     9.79     0.004
    3.99    -7.26    54.08         3.99    -7.27    54.08     0.008
    7.82    20.68    45.02         7.83    20.67    45.02     0.009
   -34.3    -6.64    -9.11        -34.3    -6.64    -9.11     0.001
    6.78   -15.75    -5.33         6.78   -15.76    -5.33     0.005
   -8.43   -25.67   -37.29        -8.43   -25.67   -37.29     0.002
  -15.37    -0.87     3.84       -15.37    -0.87     3.85     0.002
   25.99     -1.7    24.31        25.99     -1.7    24.31     0.004
   21.08     6.19   -29.05        21.08     6.19   -29.05     0.001
    3.48    -12.6     4.07         3.48    -12.6     4.07       0.0
  -26.94   -29.78   -16.36       -26.94   -29.78   -16.36     0.001
     15.    11.83   -24.14          15.    11.83   -24.14     0.003
   19.92    17.55   -30.16        19.92    17.55   -30.16     0.001
   28.36    -3.04    16.94        28.37    -3.04    16.94     0.005
  -35.46   -17.25   -10.12       -35.46   -17.25   -10.12     0.001
  -25.02   -19.48     -6.8       -25.02   -19.48     -6.8       0.0
  -25.49   -31.28   -18.55       -25.49   -31.29   -18.55     0.005
  -31.99   -29.82   -26.78       -31.99   -29.82   -26.78       0.0
   -3.82    -3.54    53.81        -3.82    -3.54    53.81     0.001
    5.58     18.7    -3.34         5.58     18.7    -3.34     0.001
    3.41    -6.98     39.3         3.41    -6.98     39.3     0.002
    1.32     6.15   -19.14         1.32     6.15   -19.14     0.001
   33.56    13.81     11.1        33.56    13.81     11.1     0.004
   -9.31    -5.83    12.75        -9.31    -5.83    12.75     0.002
    2.24    20.04    43.18         2.24    20.04    43.17     0.002
   19.54    -7.18    14.43        19.54    -7.18    14.43     0.001
  -28.14     1.18   -12.67       -28.14     1.18   -12.67     0.001
    9.47   -14.08     2.31         9.47   -14.09     2.31     0.004
   -5.77     7.07    -22.4        -5.77     7.07    -22.4     0.003
  -39.87   -11.52   -13.76       -39.87   -11.52   -13.76     0.001
   18.29   -14.91   -16.61        18.29   -14.91   -16.61     0.001
  -25.86   -26.78   -40.77       -25.86   -26.78   -40.77     0.004
    2.86    21.21    36.96         2.86     21.2    36.96     0.006
    2.91   -18.13   -12.42         2.91   -18.14   -12.42     0.002
  -37.49   -13.13   -42.65       -37.49   -13.13   -42.65     0.001
  -13.26    -3.17   -46.86       -13.26    -3.17   -46.86     0.001
  -19.84   -21.33   -46.61       -19.84   -21.33   -46.61     0.001
   10.69    26.45     4.95        10.69    26.44     4.95     0.004
  -16.02   -31.55   -31.87       -16.02   -31.55   -31.87     0.003
  -14.01    22.08    22.26       -14.01    22.08    22.26     0.002
   27.19    -5.66   -25.52        27.19    -5.66   -25.52     0.001
    6.05    -7.34    57.03         6.05    -7.35    57.03     0.006
    8.25   -13.85     2.27         8.25   -13.85     2.27     0.005
   17.32    -6.12    25.09        17.32    -6.13    25.09     0.007
   20.24    14.57    52.18        20.24    14.57    52.18     0.002
  -22.48   -31.24   -18.15       -22.48   -31.24   -18.15     0.001
   13.02    21.47   -26.76        13.03    21.47   -26.76     0.003
   26.71    23.06     4.78        26.71    23.05     4.78     0.004
     -2.   -22.23   -31.38          -2.   -22.22   -31.38     0.002
   -7.25   -26.64   -33.59        -7.25   -26.64   -33.59     0.002
    3.37   -10.93    12.41         3.37   -10.93    12.41     0.003
   17.54    -2.74    57.03        17.54    -2.75    57.03     0.006
  -36.94   -10.39    -9.51       -36.94   -10.39     -9.5     0.001
   -6.84    19.03    13.53        -6.84    19.03    13.53     0.001
    3.21    -7.34    61.14         3.21    -7.35    61.14      0.01
    8.32    24.66    16.53         8.32    24.66    16.53     0.002
    0.98     8.92   -14.26         0.98     8.91   -14.26     0.006
    25.1    -2.76    23.81         25.1    -2.75    23.81     0.002
    0.66    -8.03   -28.31         0.66    -8.03   -28.31     0.001
    5.76    -7.14    33.09         5.76    -7.15    33.09     0.008
    3.17   -14.13   -24.69         3.16   -14.13   -24.69     0.003
  -27.65   -13.95    -47.8       -27.65   -13.95    -47.8     0.002
  -31.78     7.58   -33.39       -31.78     7.59   -33.39     0.004
  -25.32     2.89   -43.78       -25.32      2.9   -43.78     0.005
